{
    "profiles": [
        {
            "devices": [
                {
                    "identifiers": {
                        "is_keyboard": true,
                        "product_id": 834,
                        "vendor_id": 1452
                    },
                    "simple_modifications": [
                        {
                            "from": { "key_code": "caps_lock" },
                            "to": [{ "key_code": "delete_or_backspace" }]
                        }
                    ]
                }
            ],
            "name": "Default profile",
            "selected": true,
            "virtual_hid_keyboard": {
                "country_code": 0,
                "keyboard_type_v2": "ansi"
            }
        }
    ]
}